{
  "name" : "",
  "scaleConfig" : {
    "z" : 4.0,
    "y" : 4.0,
    "x" : 4.0,
    "pivotX" : 0.0,
    "pivotY" : 0.0,
    "pivotZ" : 0.0
  },
  "nodeConfigurations" : [ {
    "materialConfig" : {
      "diffuseColor" : {
        "hue" : 0.0,
        "saturation" : 0.0,
        "brightness" : 0.7372549772262573,
        "opacity" : 1.0
      },
      "specularColor" : {
        "hue" : 0.0,
        "saturation" : 0.0,
        "brightness" : 1.0,
        "opacity" : 1.0
      },
      "specularPower" : 6.0
    }
  }, {
    "materialConfig" : {
      "diffuseColor" : {
        "hue" : 0.0,
        "saturation" : 0.0,
        "brightness" : 1.0,
        "opacity" : 1.0
      },
      "specularColor" : {
        "hue" : 0.0,
        "saturation" : 0.0,
        "brightness" : 1.0,
        "opacity" : 1.0
      },
      "specularPower" : 6.0,
      "diffuseMap" : "./resources/assets/perspective/environment/tablets/generic/black_small.png"
    }
  }, {
    "materialConfig" : {
      "diffuseColor" : {
        "hue" : 0.0,
        "saturation" : 0.0,
        "brightness" : 1.0,
        "opacity" : 1.0
      },
      "specularColor" : {
        "hue" : 0.0,
        "saturation" : 0.0,
        "brightness" : 1.0,
        "opacity" : 1.0
      },
      "specularPower" : 6.0,
      "diffuseMap" : "./resources/assets/perspective/environment/tablets/generic/black_glass_small.png"
    }
  }, {
    "materialConfig" : {
      "diffuseColor" : {
        "hue" : 0.0,
        "saturation" : 0.0,
        "brightness" : 1.0,
        "opacity" : 1.0
      },
      "specularColor" : {
        "hue" : 0.0,
        "saturation" : 0.0,
        "brightness" : 1.0,
        "opacity" : 1.0
      },
      "specularPower" : 6.0,
      "diffuseMap" : "./resources/assets/perspective/environment/tablets/generic/silver.jpg"
    }
  }, {
    "materialConfig" : {
      "diffuseColor" : {
        "hue" : 0.0,
        "saturation" : 0.0,
        "brightness" : 1.0,
        "opacity" : 1.0
      },
      "specularColor" : {
        "hue" : 0.0,
        "saturation" : 0.0,
        "brightness" : 1.0,
        "opacity" : 1.0
      },
      "specularPower" : 6.0,
      "diffuseMap" : "./resources/assets/perspective/environment/tablets/generic/gold_plated.jpg"
    }
  }, {
    "materialConfig" : {
      "diffuseColor" : {
        "hue" : 0.0,
        "saturation" : 0.0,
        "brightness" : 1.0,
        "opacity" : 1.0
      },
      "specularColor" : {
        "hue" : 0.0,
        "saturation" : 0.0,
        "brightness" : 1.0,
        "opacity" : 1.0
      },
      "specularPower" : 6.0,
      "diffuseMap" : "./resources/assets/perspective/environment/tablets/generic/blackdiamond_large.jpg"
    }
  }, {
    "materialConfig" : {
      "diffuseColor" : {
        "hue" : 0.0,
        "saturation" : 0.0,
        "brightness" : 0.7372549772262573,
        "opacity" : 1.0
      },
      "specularColor" : {
        "hue" : 0.0,
        "saturation" : 0.0,
        "brightness" : 1.0,
        "opacity" : 1.0
      },
      "specularPower" : 6.0
    }
  }, {
    "materialConfig" : {
      "diffuseColor" : {
        "hue" : 0.0,
        "saturation" : 0.0,
        "brightness" : 1.0,
        "opacity" : 1.0
      },
      "specularColor" : {
        "hue" : 0.0,
        "saturation" : 0.0,
        "brightness" : 1.0,
        "opacity" : 1.0
      },
      "specularPower" : 6.0,
      "diffuseMap" : "./resources/assets/perspective/environment/tablets/generic/silver.jpg"
    }
  }, {
    "materialConfig" : {
      "diffuseColor" : {
        "hue" : 0.0,
        "saturation" : 0.0,
        "brightness" : 0.7372549772262573,
        "opacity" : 1.0
      },
      "specularColor" : {
        "hue" : 0.0,
        "saturation" : 0.0,
        "brightness" : 1.0,
        "opacity" : 1.0
      },
      "specularPower" : 6.0
    }
  }, {
    "materialConfig" : {
      "diffuseColor" : {
        "hue" : 0.0,
        "saturation" : 0.0,
        "brightness" : 1.0,
        "opacity" : 1.0
      },
      "specularColor" : {
        "hue" : 0.0,
        "saturation" : 0.0,
        "brightness" : 1.0,
        "opacity" : 1.0
      },
      "specularPower" : 6.0,
      "diffuseMap" : "./resources/assets/perspective/environment/tablets/generic/silver.jpg"
    }
  }, {
    "materialConfig" : {
      "diffuseColor" : {
        "hue" : 0.0,
        "saturation" : 0.0,
        "brightness" : 0.7372549772262573,
        "opacity" : 1.0
      },
      "specularColor" : {
        "hue" : 0.0,
        "saturation" : 0.0,
        "brightness" : 1.0,
        "opacity" : 1.0
      },
      "specularPower" : 6.0
    }
  } ]
}