{
  "WHITE" : {
    "R" : {
      "name" : "",
      "rotationX" : 0.0,
      "rotationY" : 0.0,
      "rotationZ" : 0.0,
      "variant" : "R",
      "color" : "WHITE",
      "nodeConfigurations" : [ {
        "materialConfig" : {
          "specularColor" : {
            "hue" : 0.0,
            "saturation" : 0.0,
            "brightness" : 0.6627451181411743,
            "opacity" : 1.0
          },
          "diffuseColor" : {
            "hue" : 0.0,
            "saturation" : 0.0,
            "brightness" : 1.0,
            "opacity" : 1.0
          },
          "specularPower" : 32.0,
          "specularMap" : "./resources/assets/perspective/pieces/medieval/12941_Stone_Chess_Rook_Side_A_spec.jpg"
        }
      } ]
    },
    "Q" : {
      "name" : "",
      "rotationX" : 0.0,
      "rotationY" : 0.0,
      "rotationZ" : 0.0,
      "variant" : "Q",
      "color" : "WHITE",
      "nodeConfigurations" : [ {
        "materialConfig" : {
          "specularColor" : {
            "hue" : 0.0,
            "saturation" : 0.0,
            "brightness" : 0.6627451181411743,
            "opacity" : 1.0
          },
          "diffuseColor" : {
            "hue" : 0.0,
            "saturation" : 0.0,
            "brightness" : 1.0,
            "opacity" : 1.0
          },
          "specularPower" : 32.0,
          "specularMap" : "./resources/assets/perspective/pieces/medieval/12940_Stone_Chess_Queen_Side_A_spec.jpg"
        }
      } ]
    },
    "B" : {
      "name" : "",
      "rotationX" : 0.0,
      "rotationY" : 0.0,
      "rotationZ" : 0.0,
      "variant" : "B",
      "color" : "WHITE",
      "nodeConfigurations" : [ {
        "materialConfig" : {
          "specularColor" : {
            "hue" : 0.0,
            "saturation" : 0.0,
            "brightness" : 0.6627451181411743,
            "opacity" : 1.0
          },
          "diffuseColor" : {
            "hue" : 0.0,
            "saturation" : 0.0,
            "brightness" : 1.0,
            "opacity" : 1.0
          },
          "specularPower" : 32.0,
          "specularMap" : "./resources/assets/perspective/pieces/medieval/12942_Stone_Chess_Bishop_Side_A_spec.jpg"
        }
      } ]
    },
    "K" : {
      "name" : "",
      "rotationX" : 0.0,
      "rotationY" : 0.0,
      "rotationZ" : 0.0,
      "variant" : "K",
      "color" : "WHITE",
      "nodeConfigurations" : [ {
        "materialConfig" : {
          "specularColor" : {
            "hue" : 0.0,
            "saturation" : 0.0,
            "brightness" : 0.6627451181411743,
            "opacity" : 1.0
          },
          "diffuseColor" : {
            "hue" : 0.0,
            "saturation" : 0.0,
            "brightness" : 1.0,
            "opacity" : 1.0
          },
          "specularPower" : 32.0,
          "specularMap" : "./resources/assets/perspective/pieces/medieval/12939_Stone_Chess_King_Side_A_spec.jpg"
        }
      } ]
    },
    "P" : {
      "name" : "",
      "rotationX" : 0.0,
      "rotationY" : 0.0,
      "rotationZ" : 0.0,
      "variant" : "P",
      "color" : "WHITE",
      "nodeConfigurations" : [ {
        "materialConfig" : {
          "specularColor" : {
            "hue" : 0.0,
            "saturation" : 0.0,
            "brightness" : 0.6627451181411743,
            "opacity" : 1.0
          },
          "diffuseColor" : {
            "hue" : 0.0,
            "saturation" : 0.0,
            "brightness" : 1.0,
            "opacity" : 1.0
          },
          "specularPower" : 32.0,
          "specularMap" : "./resources/assets/perspective/pieces/medieval/12944_Stone_Chess_Pawn_Side_A_spec.jpg"
        }
      } ]
    },
    "N" : {
      "name" : "",
      "rotationX" : 0.0,
      "rotationY" : 0.0,
      "rotationZ" : 0.0,
      "variant" : "N",
      "color" : "WHITE",
      "nodeConfigurations" : [ {
        "materialConfig" : {
          "specularColor" : {
            "hue" : 0.0,
            "saturation" : 0.0,
            "brightness" : 0.6627451181411743,
            "opacity" : 1.0
          },
          "diffuseColor" : {
            "hue" : 0.0,
            "saturation" : 0.0,
            "brightness" : 1.0,
            "opacity" : 1.0
          },
          "specularPower" : 32.0,
          "specularMap" : "./resources/assets/perspective/pieces/medieval/12943_Stone_Chess_Night_Side_A_spec.jpg"
        }
      } ]
    }
  },
  "BLACK" : {
    "R" : {
      "name" : "",
      "rotationX" : 0.0,
      "rotationY" : 0.0,
      "rotationZ" : 0.0,
      "variant" : "R",
      "color" : "BLACK",
      "nodeConfigurations" : [ {
        "materialConfig" : {
          "specularColor" : {
            "hue" : 0.0,
            "saturation" : 0.0,
            "brightness" : 0.6627451181411743,
            "opacity" : 1.0
          },
          "diffuseColor" : {
            "hue" : 0.0,
            "saturation" : 0.0,
            "brightness" : 1.0,
            "opacity" : 1.0
          },
          "specularPower" : 32.0,
          "specularMap" : "./resources/assets/perspective/pieces/medieval/12947_Stone_Chess_Rook_Side_B_spec.jpg"
        }
      } ]
    },
    "Q" : {
      "name" : "",
      "rotationX" : 0.0,
      "rotationY" : 0.0,
      "rotationZ" : 0.0,
      "variant" : "Q",
      "color" : "BLACK",
      "nodeConfigurations" : [ {
        "materialConfig" : {
          "specularColor" : {
            "hue" : 0.0,
            "saturation" : 0.0,
            "brightness" : 0.6627451181411743,
            "opacity" : 1.0
          },
          "diffuseColor" : {
            "hue" : 0.0,
            "saturation" : 0.0,
            "brightness" : 1.0,
            "opacity" : 1.0
          },
          "specularPower" : 32.0,
          "specularMap" : "./resources/assets/perspective/pieces/medieval/12946_Stone_Chess_Queen_Side_B_spec.jpg"
        }
      } ]
    },
    "B" : {
      "name" : "",
      "rotationX" : 0.0,
      "rotationY" : 0.0,
      "rotationZ" : 0.0,
      "variant" : "B",
      "color" : "BLACK",
      "nodeConfigurations" : [ {
        "materialConfig" : {
          "specularColor" : {
            "hue" : 0.0,
            "saturation" : 0.0,
            "brightness" : 0.6627451181411743,
            "opacity" : 1.0
          },
          "diffuseColor" : {
            "hue" : 0.0,
            "saturation" : 0.0,
            "brightness" : 1.0,
            "opacity" : 1.0
          },
          "specularPower" : 32.0,
          "specularMap" : "./resources/assets/perspective/pieces/medieval/12948_Stone_Chess_Bishop_Side_B_spec.jpg"
        }
      } ]
    },
    "K" : {
      "name" : "",
      "rotationX" : 0.0,
      "rotationY" : 0.0,
      "rotationZ" : 0.0,
      "variant" : "K",
      "color" : "BLACK",
      "nodeConfigurations" : [ {
        "materialConfig" : {
          "specularColor" : {
            "hue" : 0.0,
            "saturation" : 0.0,
            "brightness" : 0.6627451181411743,
            "opacity" : 1.0
          },
          "diffuseColor" : {
            "hue" : 0.0,
            "saturation" : 0.0,
            "brightness" : 1.0,
            "opacity" : 1.0
          },
          "specularPower" : 32.0,
          "specularMap" : "./resources/assets/perspective/pieces/medieval/12945_Stone_Chess_King_Side_B_spec.jpg"
        }
      } ]
    },
    "P" : {
      "name" : "",
      "rotationX" : 0.0,
      "rotationY" : 0.0,
      "rotationZ" : 0.0,
      "variant" : "P",
      "color" : "BLACK",
      "nodeConfigurations" : [ {
        "materialConfig" : {
          "specularColor" : {
            "hue" : 0.0,
            "saturation" : 0.0,
            "brightness" : 0.6627451181411743,
            "opacity" : 1.0
          },
          "diffuseColor" : {
            "hue" : 0.0,
            "saturation" : 0.0,
            "brightness" : 1.0,
            "opacity" : 1.0
          },
          "specularPower" : 32.0,
          "specularMap" : "./resources/assets/perspective/pieces/medieval/12950_Stone_Chess_Pawn_Side_B_spec.jpg"
        }
      } ]
    },
    "N" : {
      "name" : "",
      "rotationX" : 0.0,
      "rotationY" : 0.0,
      "rotationZ" : 0.0,
      "variant" : "N",
      "color" : "BLACK",
      "nodeConfigurations" : [ {
        "materialConfig" : {
          "specularColor" : {
            "hue" : 0.0,
            "saturation" : 0.0,
            "brightness" : 0.6627451181411743,
            "opacity" : 1.0
          },
          "diffuseColor" : {
            "hue" : 0.0,
            "saturation" : 0.0,
            "brightness" : 1.0,
            "opacity" : 1.0
          },
          "specularPower" : 32.0,
          "specularMap" : "./resources/assets/perspective/pieces/medieval/12949_Stone_Chess_Night_Side_B_spec.jpg"
        }
      } ]
    }
  }
}
