{
  "WHITE" : {
    "R" : {
      "name" : "",
      "rotationX" : 0.0,
      "rotationY" : 0.0,
      "rotationZ" : 0.0,
      "variant" : "R",
      "color" : "WHITE",
      "nodeConfigurations" : [ {
        "materialConfig" : {
          "diffuseColor" : {
            "hue" : 0.0,
            "saturation" : 0.0,
            "brightness" : 0.6627451181411743,
            "opacity" : 1.0
          },
          "specularPower" : 32.0
        }
      }, {
        "materialConfig" : {
          "diffuseColor" : {
            "hue" : 0.0,
            "saturation" : 0.0,
            "brightness" : 0.6627451181411743,
            "opacity" : 1.0
          },
          "specularPower" : 32.0,
          "diffuseMap" : "./resources/assets/perspective/pieces/generic/oak.jpg"
        }
      } ]
    },
    "P" : {
      "name" : "",
      "rotationX" : 0.0,
      "rotationY" : 0.0,
      "rotationZ" : 0.0,
      "variant" : "P",
      "color" : "WHITE",
      "nodeConfigurations" : [ {
        "materialConfig" : {
          "diffuseColor" : {
            "hue" : 0.0,
            "saturation" : 0.0,
            "brightness" : 0.6627451181411743,
            "opacity" : 1.0
          },
          "specularPower" : 32.0,
          "diffuseMap" : "./resources/assets/perspective/pieces/generic/oak.jpg"
        }
      } ]
    },
    "N" : {
      "name" : "",
      "rotationX" : 0.0,
      "rotationY" : 0.0,
      "rotationZ" : 0.0,
      "variant" : "N",
      "color" : "WHITE",
      "nodeConfigurations" : [ {
        "materialConfig" : {
          "diffuseColor" : {
            "hue" : 0.0,
            "saturation" : 0.0,
            "brightness" : 0.6627451181411743,
            "opacity" : 1.0
          },
          "specularPower" : 32.0
        }
      }, {
        "materialConfig" : {
          "diffuseColor" : {
            "hue" : 0.0,
            "saturation" : 0.0,
            "brightness" : 0.6627451181411743,
            "opacity" : 1.0
          },
          "specularPower" : 32.0,
          "diffuseMap" : "./resources/assets/perspective/pieces/generic/oak.jpg"
        }
      } ]
    },
    "Q" : {
      "name" : "",
      "rotationX" : 0.0,
      "rotationY" : 0.0,
      "rotationZ" : 0.0,
      "variant" : "Q",
      "color" : "WHITE",
      "nodeConfigurations" : [ {
        "materialConfig" : {
          "diffuseColor" : {
            "hue" : 0.0,
            "saturation" : 0.0,
            "brightness" : 0.6627451181411743,
            "opacity" : 1.0
          },
          "specularPower" : 32.0,
          "diffuseMap" : "./resources/assets/perspective/pieces/generic/oak.jpg"
        }
      } ]
    },
    "B" : {
      "name" : "",
      "rotationX" : 0.0,
      "rotationY" : 0.0,
      "rotationZ" : 0.0,
      "variant" : "B",
      "color" : "WHITE",
      "nodeConfigurations" : [ {
        "materialConfig" : {
          "diffuseColor" : {
            "hue" : 0.0,
            "saturation" : 0.0,
            "brightness" : 0.6627451181411743,
            "opacity" : 1.0
          },
          "specularPower" : 32.0,
          "diffuseMap" : "./resources/assets/perspective/pieces/generic/oak.jpg"
        }
      } ]
    },
    "K" : {
      "name" : "",
      "rotationX" : 0.0,
      "rotationY" : 0.0,
      "rotationZ" : 0.0,
      "variant" : "K",
      "color" : "WHITE",
      "nodeConfigurations" : [ {
        "materialConfig" : {
          "diffuseColor" : {
            "hue" : 0.0,
            "saturation" : 0.0,
            "brightness" : 0.6627451181411743,
            "opacity" : 1.0
          },
          "specularPower" : 32.0,
          "diffuseMap" : "./resources/assets/perspective/pieces/generic/oak.jpg"
        }
      }, {
        "materialConfig" : {
          "diffuseColor" : {
            "hue" : 0.0,
            "saturation" : 0.0,
            "brightness" : 0.6627451181411743,
            "opacity" : 1.0
          },
          "specularPower" : 32.0,
          "diffuseMap" : "./resources/assets/perspective/pieces/generic/oak.jpg"
        }
      } ]
    }
  },
  "BLACK" : {
    "R" : {
      "name" : "",
      "rotationX" : 0.0,
      "rotationY" : 0.0,
      "rotationZ" : 0.0,
      "variant" : "R",
      "color" : "BLACK",
      "nodeConfigurations" : [ {
        "materialConfig" : {
          "diffuseColor" : {
            "hue" : 0.0,
            "saturation" : 0.0,
            "brightness" : 0.9607843160629272,
            "opacity" : 1.0
          },
          "specularPower" : 32.0
        }
      }, {
        "materialConfig" : {
          "diffuseColor" : {
            "hue" : 0.0,
            "saturation" : 0.0,
            "brightness" : 0.9607843160629272,
            "opacity" : 1.0
          },
          "specularPower" : 32.0,
          "diffuseMap" : "./resources/assets/perspective/pieces/generic/walnut.jpg"
        }
      } ]
    },
    "P" : {
      "name" : "",
      "rotationX" : 0.0,
      "rotationY" : 0.0,
      "rotationZ" : 0.0,
      "variant" : "P",
      "color" : "BLACK",
      "nodeConfigurations" : [ {
        "materialConfig" : {
          "diffuseColor" : {
            "hue" : 0.0,
            "saturation" : 0.0,
            "brightness" : 0.9607843160629272,
            "opacity" : 1.0
          },
          "specularPower" : 32.0,
          "diffuseMap" : "./resources/assets/perspective/pieces/generic/walnut.jpg"
        }
      } ]
    },
    "N" : {
      "name" : "",
      "rotationX" : 0.0,
      "rotationY" : 0.0,
      "rotationZ" : 0.0,
      "variant" : "N",
      "color" : "BLACK",
      "nodeConfigurations" : [ {
        "materialConfig" : {
          "diffuseColor" : {
            "hue" : 0.0,
            "saturation" : 0.0,
            "brightness" : 0.9607843160629272,
            "opacity" : 1.0
          },
          "specularPower" : 32.0
        }
      }, {
        "materialConfig" : {
          "diffuseColor" : {
            "hue" : 0.0,
            "saturation" : 0.0,
            "brightness" : 0.9607843160629272,
            "opacity" : 1.0
          },
          "specularPower" : 32.0,
          "diffuseMap" : "./resources/assets/perspective/pieces/generic/walnut.jpg"
        }
      } ]
    },
    "Q" : {
      "name" : "",
      "rotationX" : 0.0,
      "rotationY" : 0.0,
      "rotationZ" : 0.0,
      "variant" : "Q",
      "color" : "BLACK",
      "nodeConfigurations" : [ {
        "materialConfig" : {
          "diffuseColor" : {
            "hue" : 0.0,
            "saturation" : 0.0,
            "brightness" : 0.9607843160629272,
            "opacity" : 1.0
          },
          "specularPower" : 32.0,
          "diffuseMap" : "./resources/assets/perspective/pieces/generic/walnut.jpg"
        }
      } ]
    },
    "B" : {
      "name" : "",
      "rotationX" : 0.0,
      "rotationY" : 0.0,
      "rotationZ" : 0.0,
      "variant" : "B",
      "color" : "BLACK",
      "nodeConfigurations" : [ {
        "materialConfig" : {
          "diffuseColor" : {
            "hue" : 0.0,
            "saturation" : 0.0,
            "brightness" : 0.9607843160629272,
            "opacity" : 1.0
          },
          "specularPower" : 32.0,
          "diffuseMap" : "./resources/assets/perspective/pieces/generic/walnut.jpg"
        }
      } ]
    },
    "K" : {
      "name" : "",
      "rotationX" : 0.0,
      "rotationY" : 0.0,
      "rotationZ" : 0.0,
      "variant" : "K",
      "color" : "BLACK",
      "nodeConfigurations" : [ {
        "materialConfig" : {
          "diffuseColor" : {
            "hue" : 0.0,
            "saturation" : 0.0,
            "brightness" : 0.9607843160629272,
            "opacity" : 1.0
          },
          "specularPower" : 32.0,
          "diffuseMap" : "./resources/assets/perspective/pieces/generic/walnut.jpg"
        }
      }, {
        "materialConfig" : {
          "diffuseColor" : {
            "hue" : 0.0,
            "saturation" : 0.0,
            "brightness" : 0.9607843160629272,
            "opacity" : 1.0
          },
          "specularPower" : 32.0,
          "diffuseMap" : "./resources/assets/perspective/pieces/generic/walnut.jpg"
        }
      } ]
    }
  }
}